%YAML 1.1
%TAG !u! tag:unity3d.com,2011:
--- !u!114 &11400000
MonoBehaviour:
  m_ObjectHideFlags: 0
  m_PrefabParentObject: {fileID: 0}
  m_PrefabInternal: {fileID: 0}
  m_GameObject: {fileID: 0}
  m_Enabled: 1
  m_EditorHideFlags: 0
  m_Script: {fileID: 11500000, guid: 807fa81b3642b4c9c8ece75733b44c0f, type: 3}
  m_Name: _OpenWound
  m_EditorClassIdentifier: 
  Name: Open Wound
  Descryption: Deal 5 dmg and then 3 dmg each turn for 10 turns
  Cost: 3
  TargetingComponent:
    TargetingTypeRules: 0
    ValidTargetTypeRules: 5
    AffectedUnitsTypeRules: 2
    AreaOfEffectTypeRules: 1
    IsCasterAffected: 0
    IsCasterValidTarget: 0
    Range: 1
    AoeRange: 0
    PrefferableTargetType: 2
  IsMagicAbility: 0
  IgnoreMagicResistance: 1
  TargetedEffects:
  - {fileID: 11400000, guid: 6ec5836572b5a4ce1a063b7881ad5373, type: 2}
  - {fileID: 11400000, guid: a3be1d125caca41d584198d8cf3d9f27, type: 2}
  SelfTargetingEffects: []
