%YAML 1.1
%TAG !u! tag:unity3d.com,2011:
--- !u!114 &11400000
MonoBehaviour:
  m_ObjectHideFlags: 0
  m_PrefabParentObject: {fileID: 0}
  m_PrefabInternal: {fileID: 0}
  m_GameObject: {fileID: 0}
  m_Enabled: 1
  m_EditorHideFlags: 0
  m_Script: {fileID: 11500000, guid: 9bd1003918dbd4a6e9e921bd32c5064a, type: 3}
  m_Name: Duration
  m_EditorClassIdentifier: 
  Duration: 10
  DurationEndEffect: {fileID: 0}
  DurationType: 1
  EffectTag: 1
  UsedEffect: {fileID: 11400000, guid: 44d27ae2213d74b8dabc86004fb10151, type: 2}
