%YAML 1.1
%TAG !u! tag:unity3d.com,2011:
--- !u!114 &11400000
MonoBehaviour:
  m_ObjectHideFlags: 0
  m_PrefabParentObject: {fileID: 0}
  m_PrefabInternal: {fileID: 0}
  m_GameObject: {fileID: 0}
  m_Enabled: 1
  m_EditorHideFlags: 0
  m_Script: {fileID: 11500000, guid: 807fa81b3642b4c9c8ece75733b44c0f, type: 3}
  m_Name: _LifeSteal
  m_EditorClassIdentifier: 
  Name: Life Steal
  Descryption: Deal 30 dmg and heal caster for 30
  Cost: 8
  TargetingComponent:
    TargetingTypeRules: 0
    ValidTargetTypeRules: 5
    AffectedUnitsTypeRules: 2
    AreaOfEffectTypeRules: 1
    IsCasterAffected: 1
    IsCasterValidTarget: 0
    Range: 4
    AoeRange: 0
    PrefferableTargetType: 2
  IsMagicAbility: 1
  IgnoreMagicResistance: 0
  TargetedEffects:
  - {fileID: 11400000, guid: d3204be1660384dedb38cf69c59a4e1e, type: 2}
  SelfTargetingEffects:
  - {fileID: 11400000, guid: 6a4dc8f60258343dfa25ca16cb74c7c9, type: 2}
