%YAML 1.1
%TAG !u! tag:unity3d.com,2011:
--- !u!114 &11400000
MonoBehaviour:
  m_ObjectHideFlags: 0
  m_PrefabParentObject: {fileID: 0}
  m_PrefabInternal: {fileID: 0}
  m_GameObject: {fileID: 0}
  m_Enabled: 1
  m_EditorHideFlags: 0
  m_Script: {fileID: 11500000, guid: 807fa81b3642b4c9c8ece75733b44c0f, type: 3}
  m_Name: _Build Primitive Warrior
  m_EditorClassIdentifier: 
  Name: Build Primitive Warrior
  Descryption: 'build warrior :


    HP = 25

    Movement Range = 2

    Movement Cost = 1

    MagicResistance = 100

    ActionPointsPerTurn = 1'
  Cost: 3
  TargetingComponent:
    TargetingTypeRules: 0
    ValidTargetTypeRules: 1
    AffectedUnitsTypeRules: 3
    AreaOfEffectTypeRules: 1
    IsCasterAffected: 0
    IsCasterValidTarget: 0
    Range: 1
    AoeRange: 0
    PrefferableTargetType: 1
  IsMagicAbility: 0
  IgnoreMagicResistance: 1
  TargetedEffects:
  - {fileID: 11400000, guid: 4ac774abf7c8b46a49a291ec56339ea9, type: 2}
  SelfTargetingEffects: []
