%YAML 1.1
%TAG !u! tag:unity3d.com,2011:
--- !u!114 &11400000
MonoBehaviour:
  m_ObjectHideFlags: 0
  m_PrefabParentObject: {fileID: 0}
  m_PrefabInternal: {fileID: 0}
  m_GameObject: {fileID: 0}
  m_Enabled: 1
  m_EditorHideFlags: 0
  m_Script: {fileID: 11500000, guid: 807fa81b3642b4c9c8ece75733b44c0f, type: 3}
  m_Name: _Switch
  m_EditorClassIdentifier: 
  Name: Switch
  Descryption: Switch places with targeted character
  Cost: 20
  TargetingComponent:
    TargetingTypeRules: 1
    ValidTargetTypeRules: 5
    AffectedUnitsTypeRules: 2
    AreaOfEffectTypeRules: 1
    IsCasterAffected: 0
    IsCasterValidTarget: 0
    Range: 7
    AoeRange: 0
    PrefferableTargetType: 5
  IsMagicAbility: 1
  IgnoreMagicResistance: 1
  TargetedEffects:
  - {fileID: 11400000, guid: 285841429450a48dd89767d16348709c, type: 2}
  SelfTargetingEffects: []
