%YAML 1.1
%TAG !u! tag:unity3d.com,2011:
--- !u!114 &11400000
MonoBehaviour:
  m_ObjectHideFlags: 0
  m_PrefabParentObject: {fileID: 0}
  m_PrefabInternal: {fileID: 0}
  m_GameObject: {fileID: 0}
  m_Enabled: 1
  m_EditorHideFlags: 0
  m_Script: {fileID: 11500000, guid: 5f9ccdb2e8bb44a58b839f6b6f2d41f3, type: 3}
  m_Name: Slow
  m_EditorClassIdentifier: 
  StatType: 3
  Amount: 1
  SetAmount: 0
  SubtractAmount: 1
