%YAML 1.1
%TAG !u! tag:unity3d.com,2011:
--- !u!114 &11400000
MonoBehaviour:
  m_ObjectHideFlags: 0
  m_PrefabParentObject: {fileID: 0}
  m_PrefabInternal: {fileID: 0}
  m_GameObject: {fileID: 0}
  m_Enabled: 1
  m_EditorHideFlags: 0
  m_Script: {fileID: 11500000, guid: 807fa81b3642b4c9c8ece75733b44c0f, type: 3}
  m_Name: _Lesser Magic Shield
  m_EditorClassIdentifier: 
  Name: Lesser Magic Shield
  Descryption: Set target's magic resistance to 75 for 5 turns. Ignore magic resistance.
  Cost: 3
  TargetingComponent:
    TargetingTypeRules: 0
    ValidTargetTypeRules: 5
    AffectedUnitsTypeRules: 2
    AreaOfEffectTypeRules: 1
    IsCasterAffected: 1
    IsCasterValidTarget: 1
    Range: 3
    AoeRange: 0
    PrefferableTargetType: 3
  IsMagicAbility: 1
  IgnoreMagicResistance: 1
  TargetedEffects:
  - {fileID: 11400000, guid: fb4d2f459b6f248e4bbcd3f24470339f, type: 2}
  SelfTargetingEffects: []
