%YAML 1.1
%TAG !u! tag:unity3d.com,2011:
--- !u!114 &11400000
MonoBehaviour:
  m_ObjectHideFlags: 0
  m_PrefabParentObject: {fileID: 0}
  m_PrefabInternal: {fileID: 0}
  m_GameObject: {fileID: 0}
  m_Enabled: 1
  m_EditorHideFlags: 0
  m_Script: {fileID: 11500000, guid: b72e0a6744f7d4ca19328c7409a542a7, type: 3}
  m_Name: Mage
  m_EditorClassIdentifier: 
  Stats:
    m_keys: 01000000030000000200000000000000
    m_values:
    - StatType: 1
      Value: 30
    - StatType: 3
      Value: 2
    - StatType: 2
      Value: 0
    - StatType: 0
      Value: 1
  Skills:
  - {fileID: 11400000, guid: fc7bd2b23902842779c392d57d92fc93, type: 2}
  - {fileID: 11400000, guid: 4e05921094d4847fab9e639c98fe2977, type: 2}
  - {fileID: 11400000, guid: ae193195f482848c6bd14c76ad3bcf30, type: 2}
  - {fileID: 11400000, guid: 460f333ea441c485b8964eebf14e07fa, type: 2}
  - {fileID: 11400000, guid: 1648f407accb54258ad2ce86df37248f, type: 2}
  - {fileID: 11400000, guid: 29345eb859ecc4486963820cb45fea6d, type: 2}
  - {fileID: 11400000, guid: bc2e152e4cf1c4f67818f65caf8c59f9, type: 2}
  Basic: {fileID: 11400000, guid: 3cfa531d1c4084ec88891ca4a0ddb1ce, type: 2}
