%YAML 1.1
%TAG !u! tag:unity3d.com,2011:
--- !u!114 &11400000
MonoBehaviour:
  m_ObjectHideFlags: 0
  m_PrefabParentObject: {fileID: 0}
  m_PrefabInternal: {fileID: 0}
  m_GameObject: {fileID: 0}
  m_Enabled: 1
  m_EditorHideFlags: 0
  m_Script: {fileID: 11500000, guid: b72e0a6744f7d4ca19328c7409a542a7, type: 3}
  m_Name: Medic
  m_EditorClassIdentifier: 
  Stats:
    m_keys: 01000000030000000200000000000000
    m_values:
    - StatType: 1
      Value: 50
    - StatType: 3
      Value: 3
    - StatType: 2
      Value: 0
    - StatType: 0
      Value: 1
  Skills:
  - {fileID: 11400000, guid: ac02adf55378744c499e8204e8bceff0, type: 2}
  - {fileID: 11400000, guid: d235b9f5da255442eb5404ec65153d19, type: 2}
  - {fileID: 11400000, guid: 0a01f101a9f5a4cd8bc854e964d71062, type: 2}
  - {fileID: 11400000, guid: 9d697c680d8634384950175e6f9b8805, type: 2}
  - {fileID: 11400000, guid: 9e136d8faf2714fa5837bde2f36dccba, type: 2}
  - {fileID: 11400000, guid: 4a1fa74a5b57a4d4dab121d490b7e08f, type: 2}
  Basic: {fileID: 11400000, guid: 11fd5128dc843421c97d9e9cf016c242, type: 2}
