%YAML 1.1
%TAG !u! tag:unity3d.com,2011:
--- !u!114 &11400000
MonoBehaviour:
  m_ObjectHideFlags: 0
  m_PrefabParentObject: {fileID: 0}
  m_PrefabInternal: {fileID: 0}
  m_GameObject: {fileID: 0}
  m_Enabled: 1
  m_EditorHideFlags: 0
  m_Script: {fileID: 11500000, guid: 11ce1eba2e50b4a088a935cdb25d5d6d, type: 3}
  m_Name: heal
  m_EditorClassIdentifier: 
  AddValue: 1
  SetValue: 0
  Value: 9
