%YAML 1.1
%TAG !u! tag:unity3d.com,2011:
--- !u!114 &11400000
MonoBehaviour:
  m_ObjectHideFlags: 0
  m_PrefabParentObject: {fileID: 0}
  m_PrefabInternal: {fileID: 0}
  m_GameObject: {fileID: 0}
  m_Enabled: 1
  m_EditorHideFlags: 0
  m_Script: {fileID: 11500000, guid: 807fa81b3642b4c9c8ece75733b44c0f, type: 3}
  m_Name: _BuildBaricade
  m_EditorClassIdentifier: 
  Name: Build Baricade
  Descryption: build an obstacle, it disappear after 6 turns
  Cost: 1
  TargetingComponent:
    TargetingTypeRules: 0
    ValidTargetTypeRules: 1
    AffectedUnitsTypeRules: 3
    AreaOfEffectTypeRules: 1
    IsCasterAffected: 0
    IsCasterValidTarget: 0
    Range: 1
    AoeRange: 0
    PrefferableTargetType: 1
  IsMagicAbility: 0
  IgnoreMagicResistance: 1
  TargetedEffects:
  - {fileID: 11400000, guid: e8700adf9106640298dae291258b1b44, type: 2}
  SelfTargetingEffects: []
